EESchema Schematic File Version 4
EELAYER 30 0
EELAYER END
$Descr A4 11693 8268
encoding utf-8
Sheet 1 2
Title ""
Date ""
Rev ""
Comp ""
Comment1 ""
Comment2 ""
Comment3 ""
Comment4 ""
$EndDescr
$Comp
L Device:CP C1
U 1 1 604E8E0A
P 2100 2200
F 0 "C1" H 2218 2246 50  0000 L CNN
F 1 "0,1uF" H 2218 2155 50  0000 L CNN
F 2 "Capacitor_SMD:C_0402_1005Metric" H 2138 2050 50  0001 C CNN
F 3 "~" H 2100 2200 50  0001 C CNN
	1    2100 2200
	1    0    0    -1  
$EndComp
Wire Wire Line
	2100 2350 2100 2500
Wire Wire Line
	2100 1750 2100 2050
Connection ~ 2100 2050
Text GLabel 3100 5600 2    51   Input ~ 0
SoilMoisture
Text Notes 9850 4250 2    197  ~ 0
Connectors
$Comp
L Device:R R1
U 1 1 605459EE
P 5950 1950
F 0 "R1" H 6020 1996 50  0000 L CNN
F 1 "10K" H 6020 1905 50  0000 L CNN
F 2 "Resistor_SMD:R_0402_1005Metric" V 5880 1950 50  0001 C CNN
F 3 "~" H 5950 1950 50  0001 C CNN
	1    5950 1950
	0    1    1    0   
$EndComp
$Comp
L Device:R R2
U 1 1 60546253
P 7300 2200
F 0 "R2" H 7370 2246 50  0000 L CNN
F 1 "750K" H 7370 2155 50  0000 L CNN
F 2 "Resistor_SMD:R_0402_1005Metric" V 7230 2200 50  0001 C CNN
F 3 "~" H 7300 2200 50  0001 C CNN
	1    7300 2200
	1    0    0    -1  
$EndComp
$Comp
L Device:CP C5
U 1 1 60546606
P 6250 2200
F 0 "C5" H 6368 2246 50  0000 L CNN
F 1 "Variable" H 6368 2155 50  0000 L CNN
F 2 "bodenfeuchte:Coplanar_Soil_Traces" H 6288 2050 50  0001 C CNN
F 3 "~" H 6250 2200 50  0001 C CNN
	1    6250 2200
	1    0    0    -1  
$EndComp
$Comp
L Device:CP C6
U 1 1 60546C35
P 6900 2200
F 0 "C6" H 7018 2246 50  0000 L CNN
F 1 "0,1uF" H 7018 2155 50  0000 L CNN
F 2 "Capacitor_SMD:C_0402_1005Metric" H 6938 2050 50  0001 C CNN
F 3 "~" H 6900 2200 50  0001 C CNN
	1    6900 2200
	1    0    0    -1  
$EndComp
$Comp
L Device:D D1
U 1 1 60547775
P 6550 1950
F 0 "D1" H 6550 1733 50  0000 C CNN
F 1 "D" H 6550 1824 50  0000 C CNN
F 2 "Diode_SMD:D_SOD-323" H 6550 1950 50  0001 C CNN
F 3 "~" H 6550 1950 50  0001 C CNN
	1    6550 1950
	-1   0    0    1   
$EndComp
Text GLabel 5450 1950 0    51   Output ~ 0
PWM-Out
Text GLabel 7500 2400 2    51   Input ~ 0
SoilMoisture
Wire Wire Line
	7300 2050 7300 1950
Wire Wire Line
	7300 2400 7500 2400
Wire Wire Line
	6900 2050 6900 1950
Wire Wire Line
	6900 1950 7300 1950
Wire Wire Line
	6700 1950 6900 1950
Connection ~ 6900 1950
Wire Wire Line
	5450 1950 5800 1950
$Comp
L power:GND #PWR013
U 1 1 60556FEF
P 7300 2950
F 0 "#PWR013" H 7300 2700 50  0001 C CNN
F 1 "GND" H 7305 2777 50  0000 C CNN
F 2 "" H 7300 2950 50  0001 C CNN
F 3 "" H 7300 2950 50  0001 C CNN
	1    7300 2950
	1    0    0    -1  
$EndComp
$Comp
L power:GND #PWR012
U 1 1 6056E779
P 6900 2500
F 0 "#PWR012" H 6900 2250 50  0001 C CNN
F 1 "GND" H 6905 2327 50  0000 C CNN
F 2 "" H 6900 2500 50  0001 C CNN
F 3 "" H 6900 2500 50  0001 C CNN
	1    6900 2500
	1    0    0    -1  
$EndComp
$Comp
L power:GND #PWR011
U 1 1 6056EAB8
P 6250 2500
F 0 "#PWR011" H 6250 2250 50  0001 C CNN
F 1 "GND" H 6255 2327 50  0000 C CNN
F 2 "" H 6250 2500 50  0001 C CNN
F 3 "" H 6250 2500 50  0001 C CNN
	1    6250 2500
	1    0    0    -1  
$EndComp
Wire Wire Line
	6250 2350 6250 2500
Wire Wire Line
	6900 2350 6900 2500
Wire Wire Line
	7300 2800 7300 2950
Wire Wire Line
	6400 1950 6250 1950
Wire Wire Line
	6250 2050 6250 1950
Connection ~ 6250 1950
Wire Wire Line
	6250 1950 6100 1950
$Comp
L Device:R R3
U 1 1 605FA792
P 7300 2650
F 0 "R3" H 7370 2696 50  0000 L CNN
F 1 "470K" H 7370 2605 50  0000 L CNN
F 2 "Resistor_SMD:R_0402_1005Metric" V 7230 2650 50  0001 C CNN
F 3 "~" H 7300 2650 50  0001 C CNN
	1    7300 2650
	1    0    0    -1  
$EndComp
Wire Wire Line
	7300 2500 7300 2400
Wire Wire Line
	7300 2350 7300 2400
Connection ~ 7300 2400
$Comp
L Device:CP C2
U 1 1 6060C9AF
P 2600 2200
F 0 "C2" H 2718 2246 50  0000 L CNN
F 1 "10uF" H 2718 2155 50  0000 L CNN
F 2 "Capacitor_SMD:C_0402_1005Metric" H 2638 2050 50  0001 C CNN
F 3 "~" H 2600 2200 50  0001 C CNN
	1    2600 2200
	1    0    0    -1  
$EndComp
Wire Wire Line
	2600 2350 2600 2500
Wire Wire Line
	2100 2050 2600 2050
$Comp
L power:+BATT #PWR05
U 1 1 606A6A1F
P 950 1850
F 0 "#PWR05" H 950 1700 50  0001 C CNN
F 1 "+BATT" H 965 2023 50  0000 C CNN
F 2 "" H 950 1850 50  0001 C CNN
F 3 "" H 950 1850 50  0001 C CNN
	1    950  1850
	1    0    0    -1  
$EndComp
$Comp
L power:GND #PWR06
U 1 1 606A6EE8
P 950 2450
F 0 "#PWR06" H 950 2200 50  0001 C CNN
F 1 "GND" H 955 2277 50  0000 C CNN
F 2 "" H 950 2450 50  0001 C CNN
F 3 "" H 950 2450 50  0001 C CNN
	1    950  2450
	1    0    0    -1  
$EndComp
Wire Wire Line
	950  1850 950  2000
Wire Wire Line
	950  2300 950  2450
$Comp
L power:+BATT #PWR03
U 1 1 606BC2CD
P 2100 1750
F 0 "#PWR03" H 2100 1600 50  0001 C CNN
F 1 "+BATT" H 2115 1923 50  0000 C CNN
F 2 "" H 2100 1750 50  0001 C CNN
F 3 "" H 2100 1750 50  0001 C CNN
	1    2100 1750
	1    0    0    -1  
$EndComp
$Comp
L power:GND #PWR04
U 1 1 606BC864
P 2100 2600
F 0 "#PWR04" H 2100 2350 50  0001 C CNN
F 1 "GND" H 2105 2427 50  0000 C CNN
F 2 "" H 2100 2600 50  0001 C CNN
F 3 "" H 2100 2600 50  0001 C CNN
	1    2100 2600
	1    0    0    -1  
$EndComp
Wire Wire Line
	2600 2500 2100 2500
Connection ~ 2100 2500
Wire Wire Line
	2100 2500 2100 2600
$Comp
L Mechanical:MountingHole H1
U 1 1 6061AEF6
P 10150 6250
F 0 "H1" H 10250 6296 50  0000 L CNN
F 1 "MountingHole" H 10250 6205 50  0000 L CNN
F 2 "MountingHole:MountingHole_2.2mm_M2_DIN965" H 10150 6250 50  0001 C CNN
F 3 "~" H 10150 6250 50  0001 C CNN
	1    10150 6250
	1    0    0    -1  
$EndComp
$Comp
L Mechanical:MountingHole H2
U 1 1 6061C404
P 10150 5950
F 0 "H2" H 10250 5996 50  0000 L CNN
F 1 "MountingHole" H 10250 5905 50  0000 L CNN
F 2 "MountingHole:MountingHole_2.2mm_M2_DIN965" H 10150 5950 50  0001 C CNN
F 3 "~" H 10150 5950 50  0001 C CNN
	1    10150 5950
	1    0    0    -1  
$EndComp
Wire Wire Line
	4700 4900 4700 5150
Wire Wire Line
	4700 5450 4700 5650
$Comp
L power:GND #PWR0101
U 1 1 60717ADA
P 4700 5650
F 0 "#PWR0101" H 4700 5400 50  0001 C CNN
F 1 "GND" H 4705 5477 50  0000 C CNN
F 2 "" H 4700 5650 50  0001 C CNN
F 3 "" H 4700 5650 50  0001 C CNN
	1    4700 5650
	1    0    0    -1  
$EndComp
$Comp
L Device:R R4
U 1 1 607174EB
P 4700 5300
F 0 "R4" H 4770 5346 50  0000 L CNN
F 1 "750K" H 4770 5255 50  0000 L CNN
F 2 "Resistor_SMD:R_0402_1005Metric" V 4630 5300 50  0001 C CNN
F 3 "~" H 4700 5300 50  0001 C CNN
	1    4700 5300
	1    0    0    -1  
$EndComp
$Comp
L Device:LED D2
U 1 1 60716B92
P 4700 4750
F 0 "D2" V 4739 4632 50  0000 R CNN
F 1 "LED" V 4648 4632 50  0000 R CNN
F 2 "LED_SMD:LED_1206_3216Metric" H 4700 4750 50  0001 C CNN
F 3 "~" H 4700 4750 50  0001 C CNN
	1    4700 4750
	0    -1   -1   0   
$EndComp
Text GLabel 5250 4600 2    50   Input ~ 0
LED_OUT
Wire Wire Line
	5250 4600 4700 4600
Text Notes 10050 1050 2    197  ~ 0
Wireless\n
Text Notes 7000 1050 2    197  ~ 0
Measurement
Text Notes 3000 900  2    197  ~ 0
Power
Text Notes 1700 4000 2    197  ~ 0
MCU
Wire Notes Line
	6950 3550 6950 6550
Wire Notes Line
	8200 500  8200 3550
Wire Notes Line
	3350 500  3350 3550
Wire Notes Line
	4300 3550 4300 7800
$Comp
L Graphic:Logo_Open_Hardware_Small OSHW1
U 1 1 606A0823
P 7350 6850
F 0 "OSHW1" H 7350 7125 50  0001 C CNN
F 1 "Logo_Open_Hardware_Small" H 7350 6625 50  0001 C CNN
F 2 "Symbol:OSHW-Logo2_9.8x8mm_SilkScreen" H 7350 7144 50  0001 C CNN
F 3 "~" H 7350 6850 50  0001 C CNN
	1    7350 6850
	1    0    0    -1  
$EndComp
Text Notes 6050 4200 2    197  ~ 0
Interaction
$Comp
L power:+BATT #PWR0102
U 1 1 6061F36A
P 5700 5750
F 0 "#PWR0102" H 5700 5600 50  0001 C CNN
F 1 "+BATT" H 5715 5923 50  0000 C CNN
F 2 "" H 5700 5750 50  0001 C CNN
F 3 "" H 5700 5750 50  0001 C CNN
	1    5700 5750
	1    0    0    -1  
$EndComp
$Comp
L power:GND #PWR0103
U 1 1 6061F8EC
P 5700 7200
F 0 "#PWR0103" H 5700 6950 50  0001 C CNN
F 1 "GND" H 5705 7027 50  0000 C CNN
F 2 "" H 5700 7200 50  0001 C CNN
F 3 "" H 5700 7200 50  0001 C CNN
	1    5700 7200
	1    0    0    -1  
$EndComp
$Comp
L Device:R R5
U 1 1 6061FCDC
P 5700 6200
F 0 "R5" H 5770 6246 50  0000 L CNN
F 1 "750K" H 5770 6155 50  0000 L CNN
F 2 "Resistor_SMD:R_0402_1005Metric" V 5630 6200 50  0001 C CNN
F 3 "~" H 5700 6200 50  0001 C CNN
	1    5700 6200
	1    0    0    -1  
$EndComp
$Comp
L Switch:SW_Push SW1
U 1 1 60621104
P 5700 7000
F 0 "SW1" V 5654 7148 50  0000 L CNN
F 1 "SW_Push" V 5745 7148 50  0000 L CNN
F 2 "Button_Switch_SMD:SW_SPST_B3U-1000P" H 5700 7200 50  0001 C CNN
F 3 "~" H 5700 7200 50  0001 C CNN
	1    5700 7000
	0    1    1    0   
$EndComp
Text GLabel 5350 6600 0    50   Input ~ 0
BUTTON
Wire Wire Line
	5350 6600 5700 6600
Wire Wire Line
	5700 6350 5700 6600
Connection ~ 5700 6600
Wire Wire Line
	5700 6600 5700 6800
Wire Wire Line
	5700 5750 5700 6050
Wire Notes Line
	450  3550 11200 3550
Text GLabel 3100 6100 2    50   Input ~ 0
BUTTON
Text GLabel 3100 5850 2    50   Input ~ 0
LED_OUT
Text GLabel 3100 5400 2    51   Output ~ 0
PWM-Out
$Comp
L Device:Battery_Cell BT1
U 1 1 60695B9A
P 950 2200
F 0 "BT1" H 1068 2296 50  0000 L CNN
F 1 "Battery_Cell" H 1068 2205 50  0000 L CNN
F 2 "Battery:BatteryHolder_LINX_BAT-HLD-012-SMT" V 950 2260 50  0001 C CNN
F 3 "~" V 950 2260 50  0001 C CNN
	1    950  2200
	1    0    0    -1  
$EndComp
Text Notes 3950 2550 0    50   ~ 0
2x NTC for Temperature Measurements
Text Notes 9500 4500 0    50   ~ 0
TX, RX, and BOOT0/Interrupt Pin
Text Notes 800  1300 0    50   ~ 0
Change Cell to 1632
Text Notes 1150 3200 0    50   ~ 0
Copy Condensators from 5.1 Power Suppoly scheme\n
$Sheet
S 2000 5150 900  1600
U 61C210F3
F0 "STM32WLE5" 50
F1 "mcu.sch" 50
F2 "Button" I R 2900 6100 50 
F3 "PWM_OUT" I R 2900 5400 50 
F4 "SOIL_SENS" I R 2900 5600 50 
F5 "LED" I R 2900 5850 50 
F6 "NTC1" I R 2900 6550 50 
F7 "NTC2" I R 2900 6650 50 
F8 "VDD_NTC" I R 2900 6400 50 
$EndSheet
Wire Wire Line
	2900 6100 3100 6100
Wire Wire Line
	2900 5850 3100 5850
Wire Wire Line
	2900 5600 3100 5600
Wire Wire Line
	2900 5400 3100 5400
$EndSCHEMATC
