(module HOPERF_RFM9XW_SMD (layer F.Cu) (tedit 605FAB7D)
  (descr "Low Power Long Range Transceiver Module SMD-16 (https://www.hoperf.com/data/upload/portal/20181127/5bfcbea20e9ef.pdf)")
  (tags "LoRa Low Power Long Range Transceiver Module")
  (attr smd)
  (fp_text reference REF** (at 0 -9.2) (layer F.SilkS)
    (effects (font (size 1 1) (thickness 0.15)))
  )
  (fp_text value HOPERF_RFM9XW_SMD (at 0 9.5) (layer F.Fab)
    (effects (font (size 1 1) (thickness 0.15)))
  )
  (fp_line (start -7 -8) (end -8 -7) (layer F.Fab) (width 0.1))
  (fp_line (start -8.1 -7.75) (end -9 -7.75) (layer F.SilkS) (width 0.12))
  (fp_line (start -8.1 -8.1) (end -8.1 -7.75) (layer F.SilkS) (width 0.12))
  (fp_line (start 8.1 8.1) (end 8.1 7.7) (layer F.SilkS) (width 0.12))
  (fp_line (start -8.1 8.1) (end 8.1 8.1) (layer F.SilkS) (width 0.12))
  (fp_line (start -8.1 7.7) (end -8.1 8.1) (layer F.SilkS) (width 0.12))
  (fp_line (start 8.1 -8.1) (end 8.1 -7.7) (layer F.SilkS) (width 0.12))
  (fp_line (start -8.1 -8.1) (end 8.1 -8.1) (layer F.SilkS) (width 0.12))
  (fp_line (start -9.25 8.25) (end -9.25 -8.25) (layer F.CrtYd) (width 0.05))
  (fp_line (start -9.25 8.25) (end 9.25 8.25) (layer F.CrtYd) (width 0.05))
  (fp_line (start 9.25 -8.25) (end 9.25 8.25) (layer F.CrtYd) (width 0.05))
  (fp_line (start -9.25 -8.25) (end 9.25 -8.25) (layer F.CrtYd) (width 0.05))
  (fp_line (start -8 8) (end -8 -7) (layer F.Fab) (width 0.1))
  (fp_line (start -8 8) (end 8 8) (layer F.Fab) (width 0.1))
  (fp_line (start 8 8) (end 8 -8) (layer F.Fab) (width 0.1))
  (fp_line (start -7 -8) (end 8 -8) (layer F.Fab) (width 0.1))
  (fp_text user %R (at 0 0) (layer F.Fab)
    (effects (font (size 1 1) (thickness 0.15)))
  )
  (pad 1 smd rect (at -8 -7) (size 2 1) (layers F.Cu F.Paste F.Mask))
  (pad 2 smd rect (at -8 -5) (size 2 1) (layers F.Cu F.Paste F.Mask))
  (pad 3 smd rect (at -8 -3) (size 2 1) (layers F.Cu F.Paste F.Mask))
  (pad 4 smd rect (at -8 -1) (size 2 1) (layers F.Cu F.Paste F.Mask))
  (pad 5 smd rect (at -8 1) (size 2 1) (layers F.Cu F.Paste F.Mask))
  (pad 6 smd rect (at -8 3) (size 2 1) (layers F.Cu F.Paste F.Mask))
  (pad 7 smd rect (at -8 5) (size 2 1) (layers F.Cu F.Paste F.Mask))
  (pad 8 smd rect (at -8 7) (size 2 1) (layers F.Cu F.Paste F.Mask))
  (pad 9 smd rect (at 8 7) (size 2 1) (layers F.Cu F.Paste F.Mask))
  (pad 10 smd rect (at 8 5) (size 2 1) (layers F.Cu F.Paste F.Mask))
  (pad 11 smd rect (at 8 3) (size 2 1) (layers F.Cu F.Paste F.Mask))
  (pad 12 smd rect (at 8 1) (size 2 1) (layers F.Cu F.Paste F.Mask))
  (pad 13 smd rect (at 8 -1) (size 2 1) (layers F.Cu F.Paste F.Mask))
  (pad 14 smd rect (at 8 -3) (size 2 1) (layers F.Cu F.Paste F.Mask))
  (pad 15 smd rect (at 8 -5) (size 2 1) (layers F.Cu F.Paste F.Mask))
  (pad 16 smd rect (at 8 -7) (size 2 1) (layers F.Cu F.Paste F.Mask))
  (pad 9 thru_hole circle (at 6.8 7) (size 1 1) (drill 0.8) (layers *.Cu *.Mask))
  (model ${KISYS3DMOD}/RF_Module.3dshapes/HOPERF_RFM9XW_SMD.wrl
    (at (xyz 0 0 0))
    (scale (xyz 1 1 1))
    (rotate (xyz 0 0 0))
  )
)
